…
hits %>%
  left_join(tax.df, by = c("taxid" = "taxid"))
#> # A tibble: 1,028 × 88
#> # Groups:   alisqacc [848]
#>    db    aliId aliIdCount  aliL  aliM  aliN aliSim aliSimCount aliaseq alicsline
#>    <chr> <dbl>      <dbl> <dbl> <dbl> <dbl>  <dbl>       <dbl> <chr>   <lgl>    
#>  1 1     1            163   163   163   163  1             163 MGPSEN… NA       
#>  2 1     1            162   495   163   162  1             162 GPSEND… NA       
#>  3 1     1            162   495   163   162  1             162 GPSEND… NA       
#>  4 1     1            162   495   163   162  1             162 GPSEND… NA       
#>  5 1     1            162   537   163   162  1             162 GPSEND… NA       
#>  6 1     0.994        161   255   163   162  1             162 GPSEND… NA       
#>  7 1     1            107   123   163   107  1             107 PSNYIT… NA       
#>  8 1     1            107   121   163   107  1             107 PSNYIT… NA       
#>  9 1     1             99   109   163    99  1              99 NSLEKH… NA       
#> 10 1     0.990        100   408   163   101  0.990         100 SVNSLE… NA       
#> # … with 1,018 more rows, and 78 more variables: alihmmacc <lgl>,
#> #   alihmmdesc <lgl>, alihmmfrom <dbl>, alihmmname <chr>, alihmmto <dbl>,
#> #   alimline <chr>, alimmline <lgl>, alimodel <chr>, aliniseqs <dbl>,
#> #   alintseq <lgl>, alippline <chr>, alirfline <lgl>, alisindex <dbl>,
#> #   alisqacc <chr>, alisqdesc <chr>, alisqfrom <dbl>, alisqname <chr>,
#> #   alisqto <dbl>, bias.x <dbl>, bitscore <dbl>, cevalue <dbl>, iali <dbl>,
#> #   ienv <dbl>, ievalue <dbl>, is_included <dbl>, is_reported <dbl>, …
```
…
